<svg xmlns="http://www.w3.org/2000/svg" width="15" height="15" viewBox="0 0 15 15">
  <g id="Like_-" data-name="Like -" transform="translate(-764 -737)">
    <circle id="Ellipse_2" data-name="Ellipse 2" cx="7.5" cy="7.5" r="7.5" transform="translate(764 737)" fill="#9ebae3"/>
    <rect id="Rectangle_18" data-name="Rectangle 18" width="0.766" height="6.894" transform="translate(774.947 744.117) rotate(90)" fill="#fff"/>
  </g>
</svg>
