<svg xmlns="http://www.w3.org/2000/svg" width="15" height="15" viewBox="0 0 15 15">
  <g id="Токены" transform="translate(-1477.048 -10)">
    <path id="Path_109" data-name="Path 109" d="M7.5,0A7.5,7.5,0,1,1,0,7.5,7.5,7.5,0,0,1,7.5,0Z" transform="translate(1477.048 10)" fill="#9ebae3"/>
    <text id="T" transform="translate(1484.515 21.81)" fill="#4572b4" font-size="10" font-family="SFUIDisplay-Black, SF UI Display" font-weight="800"><tspan x="-3.11" y="0">T</tspan></text>
  </g>
</svg>
