<svg xmlns="http://www.w3.org/2000/svg" width="15" height="15" viewBox="0 0 15 15">
  <g id="Like_" data-name="Like +" transform="translate(-709 -737)">
    <circle id="Ellipse_1" data-name="Ellipse 1" cx="7.5" cy="7.5" r="7.5" transform="translate(709 737)" fill="#9ebae3"/>
    <g id="Group_31" data-name="Group 31" transform="translate(1.053 1.053)">
      <rect id="Rectangle_16" data-name="Rectangle 16" width="0.766" height="6.894" transform="translate(715.064 740)" fill="#fff"/>
      <rect id="Rectangle_17" data-name="Rectangle 17" width="0.766" height="6.894" transform="translate(718.894 743.064) rotate(90)" fill="#fff"/>
    </g>
  </g>
</svg>
