<svg xmlns="http://www.w3.org/2000/svg" width="6.838" height="10" viewBox="0 0 6.838 10">
  <path id="Локация" d="M8.419,2A3.458,3.458,0,0,0,5,5.5C5,8.125,8.419,12,8.419,12s3.419-3.875,3.419-6.5A3.458,3.458,0,0,0,8.419,2Zm0,4.75A1.25,1.25,0,1,1,9.64,5.5,1.236,1.236,0,0,1,8.419,6.75Z" transform="translate(-5 -2)" fill="#707070"/>
</svg>
