<svg xmlns="http://www.w3.org/2000/svg" width="15" height="12.941" viewBox="0 0 15 12.941">
  <path id="Мои_заказы_выбор_" data-name="Мои заказы (выбор)" d="M12.052,6.779,9.066,2.306A.677.677,0,0,0,8.5,2.02a.666.666,0,0,0-.566.293L4.948,6.779H1.682A.684.684,0,0,0,1,7.461a.574.574,0,0,0,.027.184l1.732,6.32a1.356,1.356,0,0,0,1.309,1h8.864a1.37,1.37,0,0,0,1.316-1l1.732-6.32L16,7.461a.684.684,0,0,0-.682-.682Zm-5.6,0,2.045-3,2.045,3ZM8.5,12.234A1.364,1.364,0,1,1,9.864,10.87,1.368,1.368,0,0,1,8.5,12.234Z" transform="translate(-1 -2.02)" fill="#9ebae3"/>
</svg>
