<svg xmlns="http://www.w3.org/2000/svg" width="8.146" height="5.03" viewBox="0 0 8.146 5.03">
  <path id="Стрелка_вниз_-_шапка" data-name="Стрелка вниз - шапка" d="M13.189,8.59,10.073,11.7,6.957,8.59,6,9.547l4.073,4.073,4.073-4.073Z" transform="translate(-6 -8.59)" fill="#4572b4"/>
</svg>
