<svg xmlns="http://www.w3.org/2000/svg" width="15" height="14.25" viewBox="0 0 15 14.25">
  <path id="Топ_заведений" data-name="Топ заведений" d="M9.5,13.452l4.635,2.8L12.9,10.977,17,7.43l-5.393-.457L9.5,2,7.392,6.972,2,7.43l4.095,3.547L4.865,16.25Z" transform="translate(-2 -2)" fill="#4572b4"/>
</svg>
