<svg xmlns="http://www.w3.org/2000/svg" width="11.47" height="13" viewBox="0 0 11.47 13">
  <path id="Репост_на_кого-то" data-name="Репост на кого-то" d="M9.588,7.824l1.086,1.086L7.929,11.647h7.012V4h1.529v9.176H7.929l2.745,2.738L9.588,17,5,12.412Z" transform="translate(-5 -4)" fill="#4572b4"/>
</svg>
