<svg xmlns="http://www.w3.org/2000/svg" width="21" height="21" viewBox="0 0 21 21">
  <path id="Истории" d="M13.629,10.218,10.418,7.8v9.5l3.211-2.417,3.105-2.332Zm0,0L10.418,7.8v9.5l3.211-2.417,3.105-2.332Zm0,0L10.418,7.8v9.5l3.211-2.417,3.105-2.332ZM11.471,4.182V2.05a10.459,10.459,0,0,0-5.6,2.332L7.366,5.891A8.348,8.348,0,0,1,11.471,4.182Zm-5.589,3.2-1.505-1.5A10.513,10.513,0,0,0,2.05,11.495H4.176A8.391,8.391,0,0,1,5.882,7.379ZM4.176,13.605H2.05a10.513,10.513,0,0,0,2.326,5.614L5.882,17.71a8.314,8.314,0,0,1-1.705-4.105Zm1.695,7.113a10.493,10.493,0,0,0,5.6,2.332V20.918a8.348,8.348,0,0,1-4.105-1.71L5.871,20.718ZM23.05,12.55a10.559,10.559,0,0,1-9.421,10.5V20.918a8.444,8.444,0,0,0,0-16.737V2.05A10.559,10.559,0,0,1,23.05,12.55Z" transform="translate(-2.05 -2.05)" fill="#9ebae3"/>
</svg>
