<svg xmlns="http://www.w3.org/2000/svg" width="11.053" height="14.211" viewBox="0 0 11.053 14.211">
  <path id="Мои_подписки" data-name="Мои подписки" d="M14.474,3H6.579A1.577,1.577,0,0,0,5.008,4.579L5,17.211l5.526-2.368,5.526,2.368V4.579A1.584,1.584,0,0,0,14.474,3Z" transform="translate(-5 -3)" fill="#4572b4"/>
</svg>
